{
  "version": "14.0.0",
  "vulnerabilities": [
    {
      "id": "3189c88bf9c9c1045ea4be135470bb37f1656693da5112f98f77072aa2f1df0a",
      "category": "sast",
      "message": "Improper Neutralization of Directives in Dynamically Evaluated Code ('Eval Injection')",
      "description": "Detected eval(variable), which could allow a malicious actor to run arbitrary code.\n",
      "cve": "",
      "severity": "Medium",
      "scanner": {
        "id": "semgrep",
        "name": "Semgrep"
      },
      "location": {
        "file": "src/jsx/main.jsx",
        "start_line": 10,
        "end_line": 10
      },
      "identifiers": [
        {
          "type": "semgrep_id",
          "name": "eslint.detect-eval-with-expression",
          "value": "eslint.detect-eval-with-expression"
        },
        {
          "type": "cwe",
          "name": "CWE-95",
          "value": "95",
          "url": "https://cwe.mitre.org/data/definitions/95.html"
        },
        {
          "type": "owasp",
          "name": "Injection",
          "value": "A1"
        },
        {
          "type": "eslint_rule_id",
          "name": "ESLint rule ID security/detect-eval-with-expression",
          "value": "security/detect-eval-with-expression"
        }
      ]
    },
    {
      "id": "49d175cf8cfd179205f84068c5f263aa834e813be573fb1454f46fe566e54c0b",
      "category": "sast",
      "message": "Incorrect Regular Expression",
      "description": "RegExp() called with a variable, this might allow an attacker to DOS your application with a long-running regular expression.\n",
      "cve": "",
      "severity": "Medium",
      "scanner": {
        "id": "semgrep",
        "name": "Semgrep"
      },
      "location": {
        "file": "src/jsx/main.jsx",
        "start_line": 16,
        "end_line": 16
      },
      "identifiers": [
        {
          "type": "semgrep_id",
          "name": "eslint.detect-non-literal-regexp",
          "value": "eslint.detect-non-literal-regexp"
        },
        {
          "type": "cwe",
          "name": "CWE-185",
          "value": "185",
          "url": "https://cwe.mitre.org/data/definitions/185.html"
        },
        {
          "type": "eslint_rule_id",
          "name": "ESLint rule ID security/detect-non-literal-regexp",
          "value": "security/detect-non-literal-regexp"
        }
      ]
    },
    {
      "id": "195af5f015b1d5ecd2489656be22046e11cc873f8218e9e0e99c4f3042ba9c66",
      "category": "sast",
      "message": "Improper Control of Generation of Code ('Code Injection')",
      "description": "Bracket object notation with user input is present, this might allow an attacker to access all properties of the object and even it's prototype, leading to possible code execution.",
      "cve": "",
      "severity": "Medium",
      "scanner": {
        "id": "semgrep",
        "name": "Semgrep"
      },
      "location": {
        "file": "src/jsx/main.jsx",
        "start_line": 28,
        "end_line": 28
      },
      "identifiers": [
        {
          "type": "semgrep_id",
          "name": "eslint.detect-object-injection",
          "value": "eslint.detect-object-injection"
        },
        {
          "type": "cwe",
          "name": "CWE-94",
          "value": "94",
          "url": "https://cwe.mitre.org/data/definitions/94.html"
        },
        {
          "type": "eslint_rule_id",
          "name": "ESLint rule ID security/detect-object-injection",
          "value": "security/detect-object-injection"
        }
      ]
    },
    {
      "id": "195af5f015b1d5ecd2489656be22046e11cc873f8218e9e0e99c4f3042ba9c66",
      "category": "sast",
      "message": "Improper Control of Generation of Code ('Code Injection')",
      "description": "Bracket object notation with user input is present, this might allow an attacker to access all properties of the object and even it's prototype, leading to possible code execution.",
      "cve": "",
      "severity": "Medium",
      "scanner": {
        "id": "semgrep",
        "name": "Semgrep"
      },
      "location": {
        "file": "src/jsx/main.jsx",
        "start_line": 28,
        "end_line": 28
      },
      "identifiers": [
        {
          "type": "semgrep_id",
          "name": "eslint.detect-object-injection",
          "value": "eslint.detect-object-injection"
        },
        {
          "type": "cwe",
          "name": "CWE-94",
          "value": "94",
          "url": "https://cwe.mitre.org/data/definitions/94.html"
        },
        {
          "type": "eslint_rule_id",
          "name": "ESLint rule ID security/detect-object-injection",
          "value": "security/detect-object-injection"
        }
      ]
    }
  ],
  "remediations": [],
  "scan": {
    "scanner": {
      "id": "semgrep",
      "name": "Semgrep",
      "url": "https://github.com/returntocorp/semgrep",
      "vendor": {
        "name": "GitLab"
      },
      "version": "0.55.1"
    },
    "type": "sast",
    "start_time": "2021-05-13T21:01:08",
    "end_time": "2021-05-13T21:01:12",
    "status": "success"
  }
}
